{
    "fields": [
        {
            "name": "SEQ_NUM",
            "description": "N° séquentiel",
            "type": "string",
            "nomenclature": "-",
            "length": "8",
            "format": "default",
            "dateCreated": "2012",
            "dateDeleted": "",
            "dateMissing": [],
            "observation": "",
            "regle_gestion": "",
            "type_oracle": "string"
        },
        {
            "name": "TYP_ART",
            "description": "Type d'enregistrement",
            "type": "string",
            "nomenclature": "MS_ENR_V",
            "length": "1",
            "format": "default",
            "dateCreated": "2012",
            "dateDeleted": "",
            "dateMissing": [],
            "observation": "",
            "regle_gestion": "",
            "type_oracle": "string"
        },
        {
            "name": "RSF_TYP",
            "description": "Type de format RSF (1 : ancien, 2 : nouveau)",
            "type": "string",
            "nomenclature": "-",
            "length": "1",
            "format": "default",
            "dateCreated": "2012",
            "dateDeleted": "",
            "dateMissing": [],
            "observation": "",
            "regle_gestion": "",
            "type_oracle": "string"
        },
        {
            "name": "NUM_FAC",
            "description": "N° Facture séquentiel",
            "type": "string",
            "nomenclature": "-",
            "length": "3",
            "format": "default",
            "dateCreated": "2012",
            "dateDeleted": "",
            "dateMissing": [],
            "observation": "",
            "regle_gestion": "",
            "type_oracle": "string"
        },
        {
            "name": "SOR_ANN",
            "description": "Année des soins",
            "type": "year",
            "nomenclature": "-",
            "length": "4",
            "format": "default",
            "dateCreated": "2012",
            "dateDeleted": "",
            "dateMissing": [],
            "observation": "",
            "regle_gestion": "",
            "type_oracle": "string"
        },
        {
            "name": "SOR_MOI",
            "description": "Mois des soins",
            "type": "date",
            "nomenclature": "-",
            "length": "2",
            "format": "%m",
            "dateCreated": "2012",
            "dateDeleted": "",
            "dateMissing": [],
            "observation": "",
            "regle_gestion": "",
            "type_oracle": "string"
        },
        {
            "name": "DEL_DAT_ENT",
            "description": "Délai par rapport à la date d'entrée",
            "type": "number",
            "nomenclature": "-",
            "length": null,
            "format": "default",
            "dateCreated": "2013",
            "dateDeleted": "",
            "dateMissing": [],
            "observation": "",
            "regle_gestion": "",
            "type_oracle": "number"
        },
        {
            "name": "ETA_NUM",
            "description": "Numéro FINESS",
            "type": "string",
            "nomenclature": "-",
            "length": "9",
            "format": "default",
            "dateCreated": "2012",
            "dateDeleted": "",
            "dateMissing": [],
            "observation": "",
            "regle_gestion": "",
            "type_oracle": "string"
        },
        {
            "name": "PSH_MDT",
            "description": "Mode de traitement",
            "type": "string",
            "nomenclature": "-",
            "length": "2",
            "format": "default",
            "dateCreated": "2012",
            "dateDeleted": "",
            "dateMissing": [],
            "observation": "",
            "regle_gestion": "",
            "type_oracle": "string"
        },
        {
            "name": "PSH_DMT",
            "description": "Discipline de prestation (ex DMT)",
            "type": "string",
            "nomenclature": "-",
            "length": "3",
            "format": "default",
            "dateCreated": "2012",
            "dateDeleted": "",
            "dateMissing": [],
            "observation": "",
            "regle_gestion": "",
            "type_oracle": "string"
        },
        {
            "name": "EXO_TM",
            "description": "Justification exo TM",
            "type": "string",
            "nomenclature": "-",
            "length": "1",
            "format": "default",
            "dateCreated": "2012",
            "dateDeleted": "",
            "dateMissing": [],
            "observation": "",
            "regle_gestion": "",
            "type_oracle": "string"
        },
        {
            "name": "EXE_SPE",
            "description": "Spécialité exécutant",
            "type": "string",
            "nomenclature": "-",
            "length": "2",
            "format": "default",
            "dateCreated": "2012",
            "dateDeleted": "",
            "dateMissing": [],
            "observation": "",
            "regle_gestion": "",
            "type_oracle": "string"
        },
        {
            "name": "ACT_COD",
            "description": "Code acte",
            "type": "string",
            "nomenclature": "IR_ACT_COD",
            "length": "5",
            "format": "default",
            "dateCreated": "2012",
            "dateDeleted": "",
            "dateMissing": [],
            "observation": "",
            "regle_gestion": "",
            "type_oracle": "string"
        },
        {
            "name": "ACT_NBR",
            "description": "Quantité",
            "type": "integer",
            "nomenclature": "-",
            "length": null,
            "format": "default",
            "dateCreated": "2012",
            "dateDeleted": "",
            "dateMissing": [],
            "observation": "",
            "regle_gestion": "",
            "type_oracle": "number"
        },
        {
            "name": "ACT_COE",
            "description": "Coefficient",
            "type": "number",
            "nomenclature": "-",
            "length": null,
            "format": "default",
            "dateCreated": "2012",
            "dateDeleted": "",
            "dateMissing": [],
            "observation": "",
            "regle_gestion": "",
            "type_oracle": "number"
        },
        {
            "name": "ACT_DNB",
            "description": "Dénombrement",
            "type": "number",
            "nomenclature": "-",
            "length": null,
            "format": "default",
            "dateCreated": "2012",
            "dateDeleted": "",
            "dateMissing": [],
            "observation": "",
            "regle_gestion": "",
            "type_oracle": "number"
        },
        {
            "name": "PRI_UNI",
            "description": "Prix Unitaire",
            "type": "number",
            "nomenclature": "-",
            "length": null,
            "format": "default",
            "dateCreated": "2012",
            "dateDeleted": "",
            "dateMissing": [],
            "observation": "",
            "regle_gestion": "",
            "type_oracle": "number"
        },
        {
            "name": "REM_BAS",
            "description": "Montant Base remboursement",
            "type": "number",
            "nomenclature": "-",
            "length": null,
            "format": "default",
            "dateCreated": "2012",
            "dateDeleted": "",
            "dateMissing": [],
            "observation": "",
            "regle_gestion": "",
            "type_oracle": "number"
        },
        {
            "name": "REM_TAU",
            "description": "Taux applicable à la prestation",
            "type": "number",
            "nomenclature": "-",
            "length": null,
            "format": "default",
            "dateCreated": "2012",
            "dateDeleted": "",
            "dateMissing": [],
            "observation": "",
            "regle_gestion": "",
            "type_oracle": "number"
        },
        {
            "name": "AMO_MNR",
            "description": "Montant Remboursable par la caisse (AMO)",
            "type": "number",
            "nomenclature": "-",
            "length": null,
            "format": "default",
            "dateCreated": "2012",
            "dateDeleted": "",
            "dateMissing": [],
            "observation": "",
            "regle_gestion": "",
            "type_oracle": "number"
        },
        {
            "name": "HON_MNT",
            "description": "Montant des honoraire (dépassement compris) ou Montant total de la dépense pour PH",
            "type": "number",
            "nomenclature": "-",
            "length": null,
            "format": "default",
            "dateCreated": "2012",
            "dateDeleted": "",
            "dateMissing": [],
            "observation": "",
            "regle_gestion": "",
            "type_oracle": "number"
        },
        {
            "name": "AMC_MNR",
            "description": "Montant remboursable par l'organisme complémentaire (AMC)",
            "type": "number",
            "nomenclature": "-",
            "length": null,
            "format": "default",
            "dateCreated": "2012",
            "dateDeleted": "",
            "dateMissing": [],
            "observation": "",
            "regle_gestion": "",
            "type_oracle": "number"
        },
        {
            "name": "ETA_NUM_GEO",
            "description": "FINESS géographique",
            "type": "string",
            "nomenclature": "-",
            "length": null,
            "format": "default",
            "dateCreated": "2017",
            "dateDeleted": "2017",
            "dateMissing": [],
            "observation": "",
            "regle_gestion": "",
            "type_oracle": "string"
        },
        {
            "name": "TYP_UNI_FON_C",
            "description": "Type d’unité fonctionnelle de consultations",
            "type": "string",
            "nomenclature": "-",
            "length": null,
            "format": "default",
            "dateCreated": "2017",
            "dateDeleted": "2017",
            "dateMissing": [],
            "observation": "",
            "regle_gestion": "",
            "type_oracle": "string"
        },
        {
            "name": "COEF_SSR",
            "description": "Coefficient SSR (1)",
            "type": "number",
            "nomenclature": "-",
            "length": null,
            "format": "default",
            "dateCreated": "2017",
            "dateDeleted": "2017",
            "dateMissing": [],
            "observation": "",
            "regle_gestion": "",
            "type_oracle": "number"
        }
    ],
    "name": "T_SSRaa_nnFCSTC",
    "title": "ACE Honoraire",
    "produit": "PMSI SSR",
    "missingValues": [
        ""
    ],
    "foreignKeys": [
        {
            "fields": [
                "ETA_NUM",
                "SEQ_NUM"
            ],
            "reference": {
                "resource": "T_SSRaa_nnFASTC",
                "fields": [
                    "ETA_NUM",
                    "SEQ_NUM"
                ]
            }
        }
    ],
    "history": {
        "dateCreated": "2012",
        "dateDeleted": "",
        "dateMissing": []
    },
    "champ": "Public",
    "observation": "A partir de 2012 - Mise en colonnes des actes en 2015 (pr toutes les années)"
}