{
    "fields": [
        {
            "name": "SEQ_NUM",
            "description": "N° séquentiel",
            "type": "string",
            "nomenclature": "-",
            "length": "8",
            "format": "default",
            "dateCreated": "2012",
            "dateDeleted": "",
            "dateMissing": [],
            "observation": "",
            "regle_gestion": "",
            "type_oracle": "string"
        },
        {
            "name": "TYP_ART",
            "description": "Type d'enregistrement",
            "type": "string",
            "nomenclature": "MS_ENR_V",
            "length": "1",
            "format": "default",
            "dateCreated": "2012",
            "dateDeleted": "",
            "dateMissing": [],
            "observation": "",
            "regle_gestion": "",
            "type_oracle": "string"
        },
        {
            "name": "RSF_TYP",
            "description": "Type de format RSF (1 : ancien, 2 : nouveau)",
            "type": "string",
            "nomenclature": "-",
            "length": "1",
            "format": "default",
            "dateCreated": "2012",
            "dateDeleted": "",
            "dateMissing": [],
            "observation": "",
            "regle_gestion": "",
            "type_oracle": "string"
        },
        {
            "name": "NUM_FAC",
            "description": "N° Facture séquentiel",
            "type": "string",
            "nomenclature": "-",
            "length": "3",
            "format": "default",
            "dateCreated": "2012",
            "dateDeleted": "",
            "dateMissing": [],
            "observation": "",
            "regle_gestion": "",
            "type_oracle": "string"
        },
        {
            "name": "SOR_ANN",
            "description": "Année de sortie",
            "type": "year",
            "nomenclature": "-",
            "length": "4",
            "format": "default",
            "dateCreated": "2012",
            "dateDeleted": "",
            "dateMissing": [],
            "observation": "",
            "regle_gestion": "",
            "type_oracle": "string"
        },
        {
            "name": "SOR_MOI",
            "description": "Mois de sortie",
            "type": "date",
            "nomenclature": "-",
            "length": "2",
            "format": "%m",
            "dateCreated": "2012",
            "dateDeleted": "",
            "dateMissing": [],
            "observation": "",
            "regle_gestion": "",
            "type_oracle": "string"
        },
        {
            "name": "ETA_NUM",
            "description": "Numéro FINESS",
            "type": "string",
            "nomenclature": "-",
            "length": "9",
            "format": "default",
            "dateCreated": "2012",
            "dateDeleted": "",
            "dateMissing": [],
            "observation": "",
            "regle_gestion": "",
            "type_oracle": "string"
        },
        {
            "name": "AGE_ANN",
            "description": "Age",
            "type": "number",
            "nomenclature": "-",
            "length": null,
            "format": "default",
            "dateCreated": "2014",
            "dateDeleted": "",
            "dateMissing": [],
            "observation": "",
            "regle_gestion": "",
            "type_oracle": "number"
        },
        {
            "name": "COD_SEX",
            "description": "Sexe",
            "type": "string",
            "nomenclature": "-",
            "length": "1",
            "format": "default",
            "dateCreated": "2012",
            "dateDeleted": "",
            "dateMissing": [],
            "observation": "",
            "regle_gestion": "",
            "type_oracle": "string"
        },
        {
            "name": "BDI_COD",
            "description": "Code géographique",
            "type": "string",
            "nomenclature": "-",
            "length": "5",
            "format": "default",
            "dateCreated": "2012",
            "dateDeleted": "",
            "dateMissing": [],
            "observation": "",
            "regle_gestion": "",
            "type_oracle": "string"
        },
        {
            "name": "BDI_DEP",
            "description": "Code département de résidence",
            "type": "string",
            "nomenclature": "-",
            "length": "2",
            "format": "default",
            "dateCreated": "2012",
            "dateDeleted": "",
            "dateMissing": [],
            "observation": "",
            "regle_gestion": "",
            "type_oracle": "string"
        },
        {
            "name": "COD_CIV",
            "description": "Code civilité",
            "type": "string",
            "nomenclature": "-",
            "length": "1",
            "format": "default",
            "dateCreated": "2012",
            "dateDeleted": "",
            "dateMissing": [],
            "observation": "",
            "regle_gestion": "",
            "type_oracle": "string"
        },
        {
            "name": "RNG_BEN",
            "description": "Rang de bénéficiaire",
            "type": "string",
            "nomenclature": "-",
            "length": "3",
            "format": "default",
            "dateCreated": "2016",
            "dateDeleted": "",
            "dateMissing": [],
            "observation": "",
            "regle_gestion": "",
            "type_oracle": "string"
        },
        {
            "name": "PS_IND",
            "description": "Indicateur du parcours de soins",
            "type": "string",
            "nomenclature": "-",
            "length": "1",
            "format": "default",
            "dateCreated": "2012",
            "dateDeleted": "",
            "dateMissing": [],
            "observation": "",
            "regle_gestion": "",
            "type_oracle": "string"
        },
        {
            "name": "OPE_NAT",
            "description": "Nature opération",
            "type": "string",
            "nomenclature": "-",
            "length": "1",
            "format": "default",
            "dateCreated": "2012",
            "dateDeleted": "",
            "dateMissing": [],
            "observation": "",
            "regle_gestion": "",
            "type_oracle": "string"
        },
        {
            "name": "NAT_ASS",
            "description": "Nature assurance",
            "type": "string",
            "nomenclature": "-",
            "length": "1",
            "format": "default",
            "dateCreated": "2012",
            "dateDeleted": "",
            "dateMissing": [],
            "observation": "",
            "regle_gestion": "",
            "type_oracle": "string"
        },
        {
            "name": "EXO_TM",
            "description": "Justification d'exonération du TM",
            "type": "string",
            "nomenclature": "-",
            "length": "1",
            "format": "default",
            "dateCreated": "2012",
            "dateDeleted": "",
            "dateMissing": [],
            "observation": "",
            "regle_gestion": "",
            "type_oracle": "string"
        },
        {
            "name": "SEJ_FAC_AM",
            "description": "Séjour facturable à l’assurance maladie",
            "type": "string",
            "nomenclature": "-",
            "length": "1",
            "format": "default",
            "dateCreated": "2012",
            "dateDeleted": "",
            "dateMissing": [],
            "observation": "",
            "regle_gestion": "",
            "type_oracle": "string"
        },
        {
            "name": "NON_SEJ_FAC_AM",
            "description": "Motif de la non facturation à l'assurance maladie",
            "type": "string",
            "nomenclature": "-",
            "length": "1",
            "format": "default",
            "dateCreated": "2012",
            "dateDeleted": "",
            "dateMissing": [],
            "observation": "",
            "regle_gestion": "",
            "type_oracle": "string"
        },
        {
            "name": "NOE_RGM",
            "description": "Code Gd régime",
            "type": "string",
            "nomenclature": "-",
            "length": "1",
            "format": "default",
            "dateCreated": "2012",
            "dateDeleted": "",
            "dateMissing": [],
            "observation": "",
            "regle_gestion": "",
            "type_oracle": "string"
        },
        {
            "name": "RNG_NAI",
            "description": "Rang de naissance",
            "type": "string",
            "nomenclature": "-",
            "length": "1",
            "format": "default",
            "dateCreated": "2016",
            "dateDeleted": "",
            "dateMissing": [],
            "observation": "",
            "regle_gestion": "",
            "type_oracle": "string"
        },
        {
            "name": "PH_BRM",
            "description": "Total Base Remboursement Prestation hospitalière",
            "type": "number",
            "nomenclature": "-",
            "length": null,
            "format": "default",
            "dateCreated": "2012",
            "dateDeleted": "",
            "dateMissing": [],
            "observation": "",
            "regle_gestion": "",
            "type_oracle": "number"
        },
        {
            "name": "PH_AMO_MNR",
            "description": "Total remboursable AMO Prestation hospitalières",
            "type": "number",
            "nomenclature": "-",
            "length": null,
            "format": "default",
            "dateCreated": "2012",
            "dateDeleted": "",
            "dateMissing": [],
            "observation": "",
            "regle_gestion": "",
            "type_oracle": "number"
        },
        {
            "name": "HON_MNT",
            "description": "Total honoraire Facturé",
            "type": "number",
            "nomenclature": "-",
            "length": null,
            "format": "default",
            "dateCreated": "2012",
            "dateDeleted": "",
            "dateMissing": [],
            "observation": "",
            "regle_gestion": "",
            "type_oracle": "number"
        },
        {
            "name": "HON_AM_MNR",
            "description": "Total honoraire remboursable AM",
            "type": "number",
            "nomenclature": "-",
            "length": null,
            "format": "default",
            "dateCreated": "2012",
            "dateDeleted": "",
            "dateMissing": [],
            "observation": "",
            "regle_gestion": "",
            "type_oracle": "number"
        },
        {
            "name": "PAS_OC_MNT",
            "description": "Total participation assuré avant OC",
            "type": "number",
            "nomenclature": "-",
            "length": null,
            "format": "default",
            "dateCreated": "2012",
            "dateDeleted": "",
            "dateMissing": [],
            "observation": "",
            "regle_gestion": "",
            "type_oracle": "number"
        },
        {
            "name": "PH_OC_MNR",
            "description": "Total remboursable OC pour les PH",
            "type": "number",
            "nomenclature": "-",
            "length": null,
            "format": "default",
            "dateCreated": "2012",
            "dateDeleted": "",
            "dateMissing": [],
            "observation": "",
            "regle_gestion": "",
            "type_oracle": "number"
        },
        {
            "name": "HON_OC_MNR",
            "description": "Total remboursable OC pour les honoraires",
            "type": "number",
            "nomenclature": "-",
            "length": null,
            "format": "default",
            "dateCreated": "2012",
            "dateDeleted": "",
            "dateMissing": [],
            "observation": "",
            "regle_gestion": "",
            "type_oracle": "number"
        },
        {
            "name": "PH_MNT",
            "description": "Montant total facturé pour PH",
            "type": "number",
            "nomenclature": "-",
            "length": null,
            "format": "default",
            "dateCreated": "2012",
            "dateDeleted": "",
            "dateMissing": [],
            "observation": "",
            "regle_gestion": "",
            "type_oracle": "number"
        },
        {
            "name": "PAT_CMU",
            "description": "Patient bénéficiaire de la CMU",
            "type": "string",
            "nomenclature": "-",
            "length": "1",
            "format": "default",
            "dateCreated": "2012",
            "dateDeleted": "",
            "dateMissing": [],
            "observation": "",
            "regle_gestion": "",
            "type_oracle": "string"
        },
        {
            "name": "GES_COD",
            "description": "Code de gestion",
            "type": "string",
            "nomenclature": "-",
            "length": "2",
            "format": "default",
            "dateCreated": "2014",
            "dateDeleted": "",
            "dateMissing": [],
            "observation": "",
            "regle_gestion": "",
            "type_oracle": "string"
        },
        {
            "name": "ORG_CPL_NUM",
            "description": "N° d’organisme complémentaire",
            "type": "string",
            "nomenclature": "-",
            "length": "10",
            "format": "default",
            "dateCreated": "2015",
            "dateDeleted": "",
            "dateMissing": [],
            "observation": "",
            "regle_gestion": "",
            "type_oracle": "string"
        },
        {
            "name": "NUM_DAT_AT",
            "description": "Numéro accident du travail ou date d’accident de droit commun",
            "type": "string",
            "nomenclature": "-",
            "length": "9",
            "format": "default",
            "dateCreated": "2015",
            "dateDeleted": "",
            "dateMissing": [],
            "observation": "",
            "regle_gestion": "",
            "type_oracle": "string"
        },
        {
            "name": "ETA_NUM_GEO",
            "description": "FINESS géographique",
            "type": "string",
            "nomenclature": "-",
            "length": null,
            "format": "default",
            "dateCreated": "2017",
            "dateDeleted": "2017",
            "dateMissing": [],
            "observation": "",
            "regle_gestion": "",
            "type_oracle": "string"
        },
        {
            "name": "CTR_TYP",
            "description": "Type de contrat souscrit auprès d'un organisme",
            "type": "string",
            "nomenclature": "-",
            "length": null,
            "format": "default",
            "dateCreated": "2017",
            "dateDeleted": "2017",
            "dateMissing": [],
            "observation": "",
            "regle_gestion": "",
            "type_oracle": "string"
        },
        {
            "name": "FIDES_TOP",
            "description": "Valorisé par FIDES",
            "type": "string",
            "length": "1",
            "dateCreated": "2012",
            "dateDeleted": "2014",
            "nomenclature": "-",
            "dateMissing": [],
            "format": "default",
            "observation": "",
            "regle_gestion": "",
            "type_oracle": "string"
        }
    ],
    "name": "T_SSRaa_nnFASTC",
    "title": "ACE Entete facture",
    "produit": "PMSI SSR",
    "missingValues": [
        ""
    ],
    "foreignKeys": [
        {
            "fields": "ETA_NUM",
            "reference": {
                "resource": "T_SSRaa_nnE",
                "fields": "ETA_NUM"
            }
        }
    ],
    "history": {
        "dateCreated": "2012",
        "dateDeleted": "",
        "dateMissing": []
    },
    "champ": "Public",
    "observation": "A partir de 2012"
}