{
    "fields": [
        {
            "name": "COH_NAI_RET",
            "description": "Code retour contrôle « Cohérence date naissance »",
            "type": "boolean",
            "nomenclature": "-",
            "length": "1",
            "format": "default",
            "dateCreated": "2013",
            "dateDeleted": "",
            "dateMissing": [],
            "observation": "",
            "regle_gestion": "",
            "type_oracle": "string"
        },
        {
            "name": "COH_SEX_RET",
            "description": "Code retour contrôle « Cohérence sexe »",
            "type": "boolean",
            "nomenclature": "-",
            "length": "1",
            "format": "default",
            "dateCreated": "2013",
            "dateDeleted": "",
            "dateMissing": [],
            "observation": "",
            "regle_gestion": "",
            "type_oracle": "string"
        },
        {
            "name": "DAT_RET",
            "description": "Code retour contrôle « date de référence» (date d'entrée)",
            "type": "string",
            "nomenclature": "-",
            "length": "1",
            "format": "default",
            "constraints": {
                "enum": ["0"]
            },
            "dateCreated": "2006",
            "dateDeleted": "",
            "dateMissing": [],
            "observation": "",
            "regle_gestion": "",
            "type_oracle": "string"
        },
        {
            "name": "ENT_DAT",
            "description": "date d'entrée",
            "type": "date",
            "nomenclature": "-",
            "length": "8",
            "format": "%d%m%Y",
            "dateCreated": "2009",
            "dateDeleted": "",
            "dateMissing": [],
            "observation": "",
            "regle_gestion": "",
            "type_oracle": "string"
        },
        {
            "name": "ETA_NUM",
            "description": "Numéro FINESS e-PMSI",
            "type": "integer",
            "nomenclature": "-",
            "length": "9",
            "format": "default",
            "constraints": {
                "minimum": 100000000
            },
            "dateCreated": "2005",
            "dateDeleted": "",
            "dateMissing": [],
            "observation": "",
            "regle_gestion": "",
            "type_oracle": "string"
        },
        {
            "name": "ETA_NUM_RET",
            "description": "Code retour contrôle \"N° FINESS d’inscription e-PMSI\"",
            "type": "boolean",
            "nomenclature": "-",
            "length": "1",
            "format": "default",
            "dateCreated": "2017",
            "dateDeleted": "",
            "dateMissing": [],
            "observation": "",
            "regle_gestion": "",
            "type_oracle": "string"
        },
        {
            "name": "EXE_SOI_AMD",
            "description": "Date d'entrée au format année + mois",
            "type": "yearmonth",
            "nomenclature": "-",
            "length": "6",
            "format": "default",
            "dateCreated": "2009",
            "dateDeleted": "",
            "dateMissing": [],
            "observation": "",
            "regle_gestion": "",
            "type_oracle": "string"
        },
        {
            "name": "EXE_SOI_AMF",
            "description": "Date de sortie au format année + mois",
            "type": "yearmonth",
            "nomenclature": "-",
            "length": "6",
            "format": "default",
            "dateCreated": "2009",
            "dateDeleted": "",
            "dateMissing": [],
            "observation": "",
            "regle_gestion": "",
            "type_oracle": "string"
        },
        {
            "name": "EXE_SOI_DTD",
            "description": "Date d'entrée (date)",
            "type": "datetime",
            "nomenclature": "-",
            "length": null,
            "format": "%d%b%Y:%H:%M:%S",
            "dateCreated": "2009",
            "dateDeleted": "",
            "dateMissing": [],
            "observation": "",
            "regle_gestion": "",
            "type_oracle": "date"
        },
        {
            "name": "EXE_SOI_DTF",
            "description": "Date de sortie (date)",
            "type": "datetime",
            "nomenclature": "-",
            "length": null,
            "format": "%d%b%Y:%H:%M:%S",
            "dateCreated": "2009",
            "dateDeleted": "",
            "dateMissing": [],
            "observation": "",
            "regle_gestion": "",
            "type_oracle": "date"
        },
        {
            "name": "FHO_RET",
            "description": "Code retour « fusion ANO HOSP et HOSP PMSI »",
            "type": "boolean",
            "nomenclature": "-",
            "length": "1",
            "format": "default",
            "dateCreated": "2005",
            "dateDeleted": "",
            "dateMissing": [],
            "observation": "",
            "regle_gestion": "",
            "type_oracle": "string"
        },
        {
            "name": "FOR_NUM",
            "description": "N° format",
            "type": "string",
            "nomenclature": "-",
            "length": "3",
            "format": "default",
            "constraints": {
                "enum": ["010","011", "012"]
            },
            "dateCreated": "2008",
            "dateDeleted": "",
            "dateMissing": [],
            "observation": "",
            "regle_gestion": "",
            "type_oracle": "string"
        },
        {
            "name": "HOS_NN_MAM",
            "description": "Hospitalisation d'un nouveau-né auprès de la mère",
            "type": "boolean",
            "nomenclature": "-",
            "length": "1",
            "format": "default",
            "dateCreated": "2013",
            "dateDeleted": "",
            "dateMissing": [],
            "observation": "",
            "regle_gestion": "",
            "type_oracle": "string"
        },
        {
            "name": "HOS_NNE_RET",
            "description": "Code retour contrôle « Hospitalisation d'un nouveau-né auprès de la mère »",
            "type": "boolean",
            "nomenclature": "-",
            "length": "1",
            "format": "default",
            "dateCreated": "2013",
            "dateDeleted": "",
            "dateMissing": [],
            "observation": "",
            "regle_gestion": "",
            "type_oracle": "string"
        },
        {
            "name": "HOS_ORG_RET",
            "description": "Code retour contrôle « Hospitalisation pour prélèvement d'organe »",
            "type": "boolean",
            "nomenclature": "-",
            "length": "1",
            "format": "default",
            "dateCreated": "2013",
            "dateDeleted": "",
            "dateMissing": [],
            "observation": "",
            "regle_gestion": "",
            "type_oracle": "string"
        },
        {
            "name": "HOS_PLO",
            "description": "Hospitalisation pour prélèvement d'organe",
            "type": "boolean",
            "nomenclature": "-",
            "length": "1",
            "format": "default",
            "dateCreated": "2013",
            "dateDeleted": "",
            "dateMissing": [],
            "observation": "",
            "regle_gestion": "",
            "type_oracle": "string"
        },
        {
            "name": "NAI_RET",
            "description": "Code retour contrôle « date de naissance »",
            "type": "string",
            "nomenclature": "-",
            "length": "1",
            "format": "default",
            "constraints": {
                "enum": ["0", "1", "9"]
            },
            "dateCreated": "2005",
            "dateDeleted": "",
            "dateMissing": [],
            "observation": "",
            "regle_gestion": "",
            "type_oracle": "string"
        },
        {
            "name": "NIR_ANO_17",
            "description": "N° anonyme",
            "type": "string",
            "nomenclature": "-",
            "length": "17",
            "format": "default",
            "constraints": {
                "minLength": 17
            },
            "dateCreated": "2005",
            "dateDeleted": "",
            "dateMissing": [],
            "observation": "",
            "regle_gestion": "",
            "type_oracle": "string"
        },
        {
            "name": "NIR_ANO_MAM",
            "description": "N° anonyme mère-enfant",
            "type": "string",
            "nomenclature": "-",
            "length": "32",
            "format": "default",
            "constraints": {
                "minLength": 32
            },
            "dateCreated": "2013",
            "dateDeleted": "",
            "dateMissing": [],
            "observation": "",
            "regle_gestion": "",
            "type_oracle": "string"
        },
        {
            "name": "NIR_RET",
            "description": "Code retour contrôle « n° sécurité sociale »",
            "type": "boolean",
            "nomenclature": "-",
            "length": "1",
            "format": "default",
            "dateCreated": "2005",
            "dateDeleted": "",
            "dateMissing": [],
            "observation": "",
            "regle_gestion": "",
            "type_oracle": "string"
        },
        {
            "name": "NUM_DAT_AT",
            "description": "Numéro accident du travail ou date d’accident de droit commun",
            "type": "integer",
            "nomenclature": "-",
            "length": "9",
            "format": "default",
            "constraints": {
                "minimum": 100000000
            },
            "dateCreated": "2015",
            "dateDeleted": "",
            "dateMissing": [],
            "observation": "",
            "regle_gestion": "",
            "type_oracle": "string"
        },
        {
            "name": "NUM_DAT_AT_RET",
            "description": "Code retour contrôle \" Numéro accident du travail ou date d’accident de droit commun\"",
            "type": "boolean",
            "nomenclature": "-",
            "length": "1",
            "format": "default",
            "dateCreated": "2015",
            "dateDeleted": "",
            "dateMissing": [],
            "observation": "",
            "regle_gestion": "",
            "type_oracle": "string"
        },
        {
            "name": "ORG_CPL_NUM",
            "description": "N° d’organisme complémentaire",
            "type": "string",
            "nomenclature": "-",
            "length": "10",
            "format": "default",
            "dateCreated": "2015",
            "dateDeleted": "",
            "dateMissing": [],
            "observation": "",
            "regle_gestion": "",
            "type_oracle": "string"
        },
        {
            "name": "ORG_CPL_NUM_RET",
            "description": "Code retour contrôle \" N° d’organisme complémentaire\"",
            "type": "boolean",
            "nomenclature": "-",
            "length": "1",
            "format": "default",
            "dateCreated": "2015",
            "dateDeleted": "",
            "dateMissing": [],
            "observation": "",
            "regle_gestion": "",
            "type_oracle": "string"
        },
        {
            "name": "PMS_RET",
            "description": "Code retour « fusion ANO PMSI et fichier PMSI »",
            "type": "boolean",
            "nomenclature": "-",
            "length": "1",
            "format": "default",
            "trueValues": ["0"],
            "falseValues": ["0"],
            "dateCreated": "2005",
            "dateDeleted": "",
            "dateMissing": [],
            "observation": "",
            "regle_gestion": "",
            "type_oracle": "string"
        },
        {
            "name": "RNG_BEN",
            "description": "Rang du bénéficiaire",
            "type": "string",
            "nomenclature": "-",
            "length": "3",
            "format": "default",
            "dateCreated": "2015",
            "dateDeleted": "",
            "dateMissing": [],
            "observation": "",
            "regle_gestion": "",
            "type_oracle": "string"
        },
        {
            "name": "RNG_BEN_RET",
            "description": "Code retour contrôle « Rang du bénéficiaire »",
            "type": "boolean",
            "nomenclature": "-",
            "length": "1",
            "format": "default",
            "dateCreated": "2015",
            "dateDeleted": "",
            "dateMissing": [],
            "observation": "",
            "regle_gestion": "",
            "type_oracle": "string"
        },
        {
            "name": "RNG_NAI",
            "description": "Rang de naissance",
            "type": "integer",
            "nomenclature": "-",
            "length": "1",
            "format": "default",
            "dateCreated": "2015",
            "dateDeleted": "",
            "dateMissing": [],
            "observation": "",
            "regle_gestion": "",
            "type_oracle": "string"
        },
        {
            "name": "RNG_NAI_RET",
            "description": "Code retour contrôle « Rang de naissance »",
            "type": "boolean",
            "nomenclature": "-",
            "length": "1",
            "format": "default",
            "dateCreated": "2015",
            "dateDeleted": "",
            "dateMissing": [],
            "observation": "",
            "regle_gestion": "",
            "type_oracle": "string"
        },
        {
            "name": "RSA_NUM",
            "description": "N° séquentiel dans fichier PMSI",
            "type": "integer",
            "nomenclature": "-",
            "length": "10",
            "format": "default",
            "constraints": {
                "minimum": 1000000000
            },
            "dateCreated": "2005",
            "dateDeleted": "",
            "dateMissing": [],
            "observation": "",
            "regle_gestion": "",
            "type_oracle": "string"
        },
        {
            "name": "SEJ_MER_RET",
            "description": "Code retour contrôle « N° administratif de séjour de la mère »",
            "type": "boolean",
            "nomenclature": "-",
            "length": "1",
            "format": "default",
            "dateCreated": "2013",
            "dateDeleted": "",
            "dateMissing": [],
            "observation": "",
            "regle_gestion": "",
            "type_oracle": "string"
        },
        {
            "name": "SEJ_NUM",
            "description": "N° de séjour",
            "type": "integer",
            "nomenclature": "-",
            "length": "5",
            "format": "default",
            "constraints": {
                "minimum": 10000
            },
            "dateCreated": "2005",
            "dateDeleted": "",
            "dateMissing": [],
            "observation": "",
            "regle_gestion": "",
            "type_oracle": "string"
        },
        {
            "name": "SEJ_RET",
            "description": "Code retour contrôle « n° d’identification administratif de séjour »",
            "type": "boolean",
            "nomenclature": "-",
            "length": "1",
            "format": "default",
            "trueValues": ["0"],
            "falseValues": ["9"],
            "dateCreated": "2005",
            "dateDeleted": "",
            "dateMissing": [],
            "observation": "",
            "regle_gestion": "",
            "type_oracle": "string"
        },
        {
            "name": "SEX_RET",
            "description": "Code retour contrôle « sexe »",
            "type": "boolean",
            "nomenclature": "-",
            "length": "1",
            "format": "default",
            "dateCreated": "2005",
            "dateDeleted": "",
            "dateMissing": [],
            "observation": "",
            "regle_gestion": "",
            "type_oracle": "string"
        },
        {
            "name": "SOR_ANN",
            "description": "Année de sortie",
            "type": "year",
            "nomenclature": "-",
            "length": "4",
            "format": "default",
            "dateCreated": "2005",
            "dateDeleted": "",
            "dateMissing": [],
            "observation": "",
            "regle_gestion": "",
            "type_oracle": "string"
        },
        {
            "name": "SOR_DAT",
            "description": "date de sortie",
            "type": "date",
            "nomenclature": "-",
            "length": "8",
            "format": "%d%m%Y",
            "dateCreated": "2009",
            "dateDeleted": "",
            "dateMissing": [],
            "observation": "",
            "regle_gestion": "",
            "type_oracle": "string"
        },
        {
            "name": "SOR_MOI",
            "description": "Mois de sortie",
            "type": "date",
            "nomenclature": "-",
            "length": "2",
            "format": "%m",
            "dateCreated": "2005",
            "dateDeleted": "",
            "dateMissing": [],
            "observation": "",
            "regle_gestion": "",
            "type_oracle": "string"
        },
        {
            "name": "VID_HOSP_FOR",
            "description": "N° format VID-HOSP",
            "type": "integer",
            "nomenclature": "-",
            "length": "3",
            "format": "default",
            "constraints": {
                "minimum": 100
            },
            "dateCreated": "2008",
            "dateDeleted": "",
            "dateMissing": [],
            "observation": "",
            "regle_gestion": "",
            "type_oracle": "string"
        },
        {
            "name": "ENT_AM",
            "description": "Date d'entrée au format année + mois",
            "type": "yearmonth",
            "length": "6",
            "dateCreated": "2009",
            "dateDeleted": "2011",
            "nomenclature": "-",
            "dateMissing": [],
            "format": "default",
            "observation": "",
            "regle_gestion": "",
            "type_oracle": "date"
        },
        {
            "name": "SOR_AM",
            "description": "Date de sortie au format année + mois",
            "type": "yearmonth",
            "length": "6",
            "dateCreated": "2009",
            "dateDeleted": "2011",
            "nomenclature": "-",
            "dateMissing": [],
            "format": "default",
            "observation": "",
            "regle_gestion": "",
            "type_oracle": "date"
        }
    ],
    "name": "T_MCOaa_nnC",
    "title": "NIR patient et Dates de soin",
    "produit": "PMSI MCO",
    "missingValues": [
        ""
    ],
    "primaryKey": [
        "ETA_NUM",
        "RSA_NUM"
    ],
    "foreignKeys": [
        {
            "fields": [
                "ETA_NUM",
                "RSA_NUM"
            ],
            "reference": {
                "resource": "T_MCOaa_nnB",
                "fields": [
                    "ETA_NUM",
                    "RSA_NUM"
                ]
            },
            "description": "Bidirectionnel"
        },
        {
            "fields": "NIR_ANO_17",
            "reference": {
                "resource": "IR_BEN_R",
                "fields": "BEN_NIR_PSA"
            }
        }
    ],
    "history": {
        "dateCreated": "2005",
        "dateDeleted": "",
        "dateMissing": []
    },
    "champ": "Public et Privé",
    "observation": "Cette table fournit les informations d'identification du patient (permet de chaîner avec DCIR), elle contient 1 ligne par RSA (table MCOB). Les codes retour nous informent sur la qualité dev NIR_ANO_17 et non pas sur le séjour; Pour les codes retour qui ne valent pas 0, cela signifie donc que le NIR_ANO_17 n'est pas bon (env. 2% des lignes; cf onglet \"Filtres\") mais le séjour est quant à lui correct. Attention il y a de RSA fictifs qu'ils faut filtrer, voir règles de gestion pour les supprimer (pas de possibilté de filtrer sans croiser avec la table MCOB)."
}