{
    "fields": [
        {
            "name": "DEL_DAT_ENT",
            "description": "delai par rapport a date entree",
            "type": "number",
            "nomenclature": "-",
            "length": null,
            "format": "default",
            "dateCreated": "2014",
            "dateDeleted": "",
            "dateMissing": [],
            "observation": "",
            "regle_gestion": "",
            "type_oracle": "number"
        },
        {
            "name": "ENT_ANN",
            "description": "Année de la date début de séjour",
            "type": "year",
            "nomenclature": "-",
            "length": "4",
            "format": "default",
            "dateCreated": "2014",
            "dateDeleted": "",
            "dateMissing": [],
            "observation": "",
            "regle_gestion": "",
            "type_oracle": "string"
        },
        {
            "name": "ENT_MOI",
            "description": "Mois de la date début de séjour",
            "type": "date",
            "nomenclature": "-",
            "length": "2",
            "format": "%m",
            "dateCreated": "2014",
            "dateDeleted": "",
            "dateMissing": [],
            "observation": "",
            "regle_gestion": "",
            "type_oracle": "string"
        },
        {
            "name": "ETA_NUM_EPMSI",
            "description": "N° FINESS ePMSI",
            "type": "string",
            "nomenclature": "-",
            "length": "9",
            "format": "default",
            "dateCreated": "2014",
            "dateDeleted": "",
            "dateMissing": [],
            "observation": "",
            "regle_gestion": "",
            "type_oracle": "string"
        },
        {
            "name": "ETA_NUM_GEO",
            "description": "Numéro FINESS  géographique",
            "type": "string",
            "nomenclature": "-",
            "length": "9",
            "format": "default",
            "dateCreated": "2017",
            "dateDeleted": "",
            "dateMissing": [],
            "observation": "",
            "regle_gestion": "",
            "type_oracle": "string"
        },
        {
            "name": "ETB_NUM",
            "description": "Etablissement de transfert ou de retour ou lieu d'exécution de l'acte",
            "type": "string",
            "nomenclature": "-",
            "length": "14",
            "format": "default",
            "dateCreated": "2014",
            "dateDeleted": "",
            "dateMissing": [],
            "observation": "",
            "regle_gestion": "",
            "type_oracle": "string"
        },
        {
            "name": "FAC_NUM",
            "description": "N° séquentiel de facture (idem RAPSS)",
            "type": "string",
            "nomenclature": "-",
            "length": "5",
            "format": "default",
            "dateCreated": "2014",
            "dateDeleted": "",
            "dateMissing": [],
            "observation": "",
            "regle_gestion": "",
            "type_oracle": "string"
        },
        {
            "name": "RHAD_NUM",
            "description": "Numéro séquentiel d'entrée (idem RAPSS)",
            "type": "string",
            "nomenclature": "-",
            "length": "5",
            "format": "default",
            "dateCreated": "2014",
            "dateDeleted": "",
            "dateMissing": [],
            "observation": "",
            "regle_gestion": "",
            "type_oracle": "string"
        },
        {
            "name": "SEJ_FIN",
            "description": "Nature d'interruption ou de fin de séjour",
            "type": "string",
            "nomenclature": "-",
            "length": "1",
            "format": "default",
            "dateCreated": "2014",
            "dateDeleted": "",
            "dateMissing": [],
            "observation": "",
            "regle_gestion": "",
            "type_oracle": "string"
        },
        {
            "name": "SOR_ANN",
            "description": "Année de la date fin de séjour",
            "type": "year",
            "nomenclature": "-",
            "length": "4",
            "format": "default",
            "dateCreated": "2014",
            "dateDeleted": "",
            "dateMissing": [],
            "observation": "",
            "regle_gestion": "",
            "type_oracle": "string"
        },
        {
            "name": "SOR_MOI",
            "description": "Mois de la date fin de séjour",
            "type": "date",
            "nomenclature": "-",
            "length": "2",
            "format": "%m",
            "dateCreated": "2014",
            "dateDeleted": "",
            "dateMissing": [],
            "observation": "",
            "regle_gestion": "",
            "type_oracle": "string"
        },
        {
            "name": "TYP_ART",
            "description": "Type d'enregistrement",
            "type": "string",
            "nomenclature": "MS_ENR_V",
            "length": "1",
            "format": "default",
            "dateCreated": "2014",
            "dateDeleted": "",
            "dateMissing": [],
            "observation": "",
            "regle_gestion": "",
            "type_oracle": "string"
        },
        {
            "name": "ETA_NUM_TWO",
            "description": "Numéro FINESS de l’établissement (site géographique)",
            "type": "string",
            "length": "9",
            "dateCreated": "2014",
            "dateDeleted": "2017",
            "nomenclature": "-",
            "dateMissing": [],
            "format": "default",
            "observation": "",
            "regle_gestion": "",
            "type_oracle": "string"
        }
    ],
    "name": "T_HADaa_nnFI",
    "title": "Table FI : Table des RSFA interruption de séjour des établissements ex-OQN",
    "produit": "PMSI HAD",
    "missingValues": [
        ""
    ],
    "foreignKeys": [
        {
            "fields": [
                "ETA_NUM_EPMSI",
                "RHAD_NUM"
            ],
            "reference": {
                "resource": "T_HADaa_nnB",
                "fields": [
                    "ETA_NUM_EPMSI",
                    "RHAD_NUM"
                ]
            }
        }
    ],
    "history": {
        "dateCreated": "2014",
        "dateDeleted": "",
        "dateMissing": []
    },
    "champ": "Privé",
    "observation": ""
}