{
    "fields": [
        {
            "name": "ANN",
            "description": "Année période",
            "type": "year",
            "nomenclature": "-",
            "length": "4",
            "format": "default",
            "dateCreated": "2010",
            "dateDeleted": "",
            "dateMissing": [
                "2012",
                "2013"
            ],
            "observation": "",
            "regle_gestion": "",
            "type_oracle": "string"
        },
        {
            "name": "DAT_DEB_CON",
            "description": "Date de début de la convention",
            "type": "date",
            "nomenclature": "-",
            "length": "8",
            "format": "default",
            "dateCreated": "2010",
            "dateDeleted": "",
            "dateMissing": [
                "2012",
                "2013"
            ],
            "observation": "",
            "regle_gestion": "",
            "type_oracle": "string"
        },
        {
            "name": "DAT_FIN_CON",
            "description": "Date de fin de la convention",
            "type": "date",
            "nomenclature": "-",
            "length": "8",
            "format": "default",
            "dateCreated": "2010",
            "dateDeleted": "",
            "dateMissing": [
                "2012",
                "2013"
            ],
            "observation": "",
            "regle_gestion": "",
            "type_oracle": "string"
        },
        {
            "name": "ETA_NUM_ESMS",
            "description": "N° FINESS ESMS",
            "type": "string",
            "nomenclature": "-",
            "length": null,
            "format": "default",
            "dateCreated": "",
            "dateDeleted": "",
            "dateMissing": [],
            "observation": "",
            "regle_gestion": "",
            "type_oracle": "string"
        },
        {
            "name": "ETA_NUM_EPMSI",
            "description": "N° FINESS e-PMSI",
            "type": "string",
            "nomenclature": "-",
            "length": "9",
            "format": "default",
            "dateCreated": "2010",
            "dateDeleted": "",
            "dateMissing": [
                "2012",
                "2013"
            ],
            "observation": "",
            "regle_gestion": "",
            "type_oracle": "string"
        },
        {
            "name": "FFT_COD",
            "description": "Code forfait de soins",
            "type": "string",
            "nomenclature": "-",
            "length": "1",
            "format": "default",
            "dateCreated": "2010",
            "dateDeleted": "",
            "dateMissing": [
                "2012",
                "2013"
            ],
            "observation": "",
            "regle_gestion": "",
            "type_oracle": "string"
        },
        {
            "name": "FIC_TYP",
            "description": "Type de fichier",
            "type": "string",
            "nomenclature": "-",
            "length": "3",
            "format": "default",
            "dateCreated": "2010",
            "dateDeleted": "",
            "dateMissing": [
                "2012",
                "2013"
            ],
            "observation": "",
            "regle_gestion": "",
            "type_oracle": "string"
        },
        {
            "name": "MOI",
            "description": "N° période (mois)",
            "type": "date",
            "nomenclature": "-",
            "length": "2",
            "format": "%m",
            "dateCreated": "2014",
            "dateDeleted": "",
            "dateMissing": [],
            "observation": "",
            "regle_gestion": "",
            "type_oracle": "string"
        },
        {
            "name": "ETA_TYP_ESMS",
            "description": "Type d'établissement",
            "type": "string",
            "nomenclature": "-",
            "length": "2",
            "format": "default",
            "dateCreated": "2015",
            "dateDeleted": "",
            "dateMissing": [],
            "observation": "",
            "regle_gestion": "",
            "type_oracle": "string"
        },
        {
            "name": "MOIS",
            "description": "N° période (mois)",
            "type": "date",
            "length": "2",
            "dateCreated": "2010",
            "dateDeleted": "2012",
            "nomenclature": "-",
            "dateMissing": [],
            "format": "%m",
            "observation": "",
            "regle_gestion": "",
            "type_oracle": "string"
        },
        {
            "name": "ETA_NUM_EHPA",
            "description": "N° FINESS ESMS",
            "type": "string",
            "length": "9",
            "dateCreated": "2010",
            "dateDeleted": "",
            "nomenclature": "-",
            "dateMissing": [],
            "format": "default",
            "observation": "",
            "regle_gestion": "",
            "type_oracle": "string"
        }
    ],
    "name": "T_HADaa_nnEHPA",
    "title": "Table des conventions HAD-EHPA",
    "produit": "PMSI HAD",
    "missingValues": [
        ""
    ],
    "foreignKeys": [
        {
            "fields": "ETA_NUM_EPMSI",
            "reference": {
                "resource": "T_HADaa_nnE",
                "fields": "ETA_NUM"
            }
        },
        {
            "fields": "ETA_NUM_EHPA",
            "reference": {
                "resource": "T_HADaa_nnE",
                "fields": "ETA_NUM"
            }
        }
    ],
    "history": {
        "dateCreated": "2010",
        "dateDeleted": "",
        "dateMissing": [
            "2012",
            "2013"
        ]
    },
    "champ": "Public et Privé",
    "observation": "table non transmise en 2012 et 2013"
}