{
    "fields": [
        {
            "name": "ACT_ANN",
            "description": "Année de la date de l'acte",
            "type": "year",
            "nomenclature": "-",
            "length": "4",
            "format": "default",
            "dateCreated": "2010",
            "dateDeleted": "",
            "dateMissing": [],
            "observation": "",
            "regle_gestion": "",
            "type_oracle": "string"
        },
        {
            "name": "ACT_COD",
            "description": "Code acte",
            "type": "string",
            "nomenclature": "IR_ACT_COD",
            "length": "5",
            "format": "default",
            "dateCreated": "2010",
            "dateDeleted": "",
            "dateMissing": [],
            "observation": "",
            "regle_gestion": "",
            "type_oracle": "string"
        },
        {
            "name": "ACT_COE",
            "description": "Cœfficient",
            "type": "number",
            "nomenclature": "-",
            "length": null,
            "format": "default",
            "dateCreated": "2010",
            "dateDeleted": "",
            "dateMissing": [],
            "observation": "",
            "regle_gestion": "",
            "type_oracle": "number"
        },
        {
            "name": "ACT_DNB",
            "description": "Dénombrement",
            "type": "number",
            "nomenclature": "-",
            "length": null,
            "format": "default",
            "dateCreated": "2010",
            "dateDeleted": "",
            "dateMissing": [],
            "observation": "",
            "regle_gestion": "",
            "type_oracle": "number"
        },
        {
            "name": "ACT_MOI",
            "description": "Mois de la date de l'acte",
            "type": "date",
            "nomenclature": "-",
            "length": "2",
            "format": "%m",
            "dateCreated": "2010",
            "dateDeleted": "",
            "dateMissing": [],
            "observation": "",
            "regle_gestion": "",
            "type_oracle": "string"
        },
        {
            "name": "ACT_NBR",
            "description": "Quantité",
            "type": "integer",
            "nomenclature": "-",
            "length": "5",
            "format": "default",
            "dateCreated": "2010",
            "dateDeleted": "",
            "dateMissing": [],
            "observation": "",
            "regle_gestion": "",
            "type_oracle": "number"
        },
        {
            "name": "AMC_MNR",
            "description": "Montant remboursable par AMC",
            "type": "number",
            "nomenclature": "-",
            "length": null,
            "format": "default",
            "dateCreated": "2010",
            "dateDeleted": "",
            "dateMissing": [],
            "observation": "",
            "regle_gestion": "",
            "type_oracle": "number"
        },
        {
            "name": "AMO_MNR",
            "description": "Montant Remboursable par AMO",
            "type": "number",
            "nomenclature": "-",
            "length": null,
            "format": "default",
            "dateCreated": "2010",
            "dateDeleted": "",
            "dateMissing": [],
            "observation": "",
            "regle_gestion": "",
            "type_oracle": "number"
        },
        {
            "name": "DEL_DAT_ENT",
            "description": "delai par rapport à la date d'entrée",
            "type": "number",
            "nomenclature": "-",
            "length": null,
            "format": "default",
            "dateCreated": "2013",
            "dateDeleted": "",
            "dateMissing": [],
            "observation": "",
            "regle_gestion": "",
            "type_oracle": "number"
        },
        {
            "name": "ETA_NUM_EPMSI",
            "description": "N° FINESS e-PMSI",
            "type": "string",
            "nomenclature": "-",
            "length": "9",
            "format": "default",
            "dateCreated": "2010",
            "dateDeleted": "",
            "dateMissing": [],
            "observation": "",
            "regle_gestion": "",
            "type_oracle": "string"
        },
        {
            "name": "ETA_NUM_GEO",
            "description": "Numéro FINESS  géographique",
            "type": "string",
            "nomenclature": "-",
            "length": "9",
            "format": "default",
            "dateCreated": "2017",
            "dateDeleted": "",
            "dateMissing": [],
            "observation": "",
            "regle_gestion": "",
            "type_oracle": "string"
        },
        {
            "name": "EXO_TM",
            "description": "Justification exo TM",
            "type": "string",
            "nomenclature": "-",
            "length": "1",
            "format": "default",
            "dateCreated": "2010",
            "dateDeleted": "",
            "dateMissing": [],
            "observation": "",
            "regle_gestion": "",
            "type_oracle": "string"
        },
        {
            "name": "EXE_SPE",
            "description": "Spécialité exécutant",
            "type": "string",
            "nomenclature": "-",
            "length": "2",
            "format": "default",
            "dateCreated": "2017",
            "dateDeleted": "",
            "dateMissing": [],
            "observation": "",
            "regle_gestion": "",
            "type_oracle": "string"
        },
        {
            "name": "FAC_NUM",
            "description": "N° séquentiel de facture (idem RAPSS)",
            "type": "string",
            "nomenclature": "-",
            "length": "5",
            "format": "default",
            "dateCreated": "2010",
            "dateDeleted": "",
            "dateMissing": [],
            "observation": "",
            "regle_gestion": "",
            "type_oracle": "string"
        },
        {
            "name": "HON_MNT",
            "description": "Montant des honoraire (dépassement compris)",
            "type": "number",
            "nomenclature": "-",
            "length": null,
            "format": "default",
            "dateCreated": "2010",
            "dateDeleted": "",
            "dateMissing": [],
            "observation": "",
            "regle_gestion": "",
            "type_oracle": "number"
        },
        {
            "name": "NOE_MNR",
            "description": "Montant remboursé NOEMIE Retour",
            "type": "number",
            "nomenclature": "-",
            "length": null,
            "format": "default",
            "dateCreated": "2010",
            "dateDeleted": "",
            "dateMissing": [],
            "observation": "",
            "regle_gestion": "",
            "type_oracle": "number"
        },
        {
            "name": "NOE_OPE",
            "description": "Nature opération récupération NOEMIE Retour",
            "type": "string",
            "nomenclature": "-",
            "length": "3",
            "format": "default",
            "dateCreated": "2010",
            "dateDeleted": "",
            "dateMissing": [],
            "observation": "",
            "regle_gestion": "",
            "type_oracle": "string"
        },
        {
            "name": "PRI_UNI",
            "description": "Prix Unitaire",
            "type": "number",
            "nomenclature": "-",
            "length": null,
            "format": "default",
            "dateCreated": "2010",
            "dateDeleted": "",
            "dateMissing": [],
            "observation": "",
            "regle_gestion": "",
            "type_oracle": "number"
        },
        {
            "name": "PSH_DMT",
            "description": "Discipline de prestation (ex DMT)",
            "type": "string",
            "nomenclature": "-",
            "length": "3",
            "format": "default",
            "dateCreated": "2010",
            "dateDeleted": "",
            "dateMissing": [],
            "observation": "",
            "regle_gestion": "",
            "type_oracle": "string"
        },
        {
            "name": "PSH_MDT",
            "description": "Mode de traitement",
            "type": "string",
            "nomenclature": "-",
            "length": "2",
            "format": "default",
            "dateCreated": "2010",
            "dateDeleted": "",
            "dateMissing": [],
            "observation": "",
            "regle_gestion": "",
            "type_oracle": "string"
        },
        {
            "name": "REM_BAS",
            "description": "Montant Base remboursement",
            "type": "number",
            "nomenclature": "-",
            "length": null,
            "format": "default",
            "dateCreated": "2010",
            "dateDeleted": "",
            "dateMissing": [],
            "observation": "",
            "regle_gestion": "",
            "type_oracle": "number"
        },
        {
            "name": "REM_TAU",
            "description": "Taux Remboursement",
            "type": "number",
            "nomenclature": "-",
            "length": null,
            "format": "default",
            "dateCreated": "2010",
            "dateDeleted": "",
            "dateMissing": [],
            "observation": "",
            "regle_gestion": "",
            "type_oracle": "number"
        },
        {
            "name": "RHAD_NUM",
            "description": "Numéro séquentiel d'entrée (idem RAPSS)",
            "type": "string",
            "nomenclature": "-",
            "length": "5",
            "format": "default",
            "dateCreated": "2010",
            "dateDeleted": "",
            "dateMissing": [],
            "observation": "",
            "regle_gestion": "",
            "type_oracle": "string"
        },
        {
            "name": "TYP_ART",
            "description": "Type d'enregistrement",
            "type": "string",
            "nomenclature": "MS_ENR_V",
            "length": "1",
            "format": "default",
            "dateCreated": "2010",
            "dateDeleted": "",
            "dateMissing": [],
            "observation": "",
            "regle_gestion": "",
            "type_oracle": "string"
        },
        {
            "name": "ETA_NUM_TWO",
            "description": "Numéro FINESS de l’établissement (site géographique)",
            "type": "string",
            "length": "9",
            "dateCreated": "2010",
            "dateDeleted": "2017",
            "nomenclature": "-",
            "dateMissing": [],
            "format": "default",
            "observation": "",
            "regle_gestion": "",
            "type_oracle": "string"
        }
    ],
    "name": "T_HADaa_nnFC",
    "title": "Table FC : Table des RSFA des honoraires des établissements ex-OQN",
    "produit": "PMSI HAD",
    "missingValues": [
        ""
    ],
    "foreignKeys": [
        {
            "fields": [
                "ETA_NUM_EPMSI",
                "RHAD_NUM"
            ],
            "reference": {
                "resource": "T_HADaa_nnB",
                "fields": [
                    "ETA_NUM_EPMSI",
                    "RHAD_NUM"
                ]
            }
        }
    ],
    "history": {
        "dateCreated": "2010",
        "dateDeleted": "",
        "dateMissing": []
    },
    "champ": "Privé",
    "observation": ""
}