{
    "name": "T_HADaa_nnMON",
    "title": "Fichier de déclaration agrégée d'activité (FICHSUP) sur les Molécules onéreuses",
    "produit": "PMSI HAD",
    "history": {
        "dateCreated": "2008",
        "dateDeleted": "2009",
        "dateMissing": []
    },
    "missingValues": [
        ""
    ],
    "fields": [
        {
            "name": "MOIS",
            "description": "N° période (mois)",
            "type": "date",
            "length": "2",
            "dateCreated": "2008",
            "dateDeleted": "2009",
            "nomenclature": "-",
            "dateMissing": [],
            "format": "%m",
            "observation": "",
            "regle_gestion": "",
            "type_oracle": "string"
        },
        {
            "name": "UCD_COD",
            "description": "Code UCD",
            "type": "string",
            "length": "9",
            "dateCreated": "2008",
            "dateDeleted": "2009",
            "nomenclature": "-",
            "dateMissing": [],
            "format": "default",
            "observation": "",
            "regle_gestion": "",
            "type_oracle": "string"
        },
        {
            "name": "ANN",
            "description": "Année période",
            "type": "year",
            "length": "4",
            "dateCreated": "2008",
            "dateDeleted": "2009",
            "nomenclature": "-",
            "dateMissing": [],
            "format": "default",
            "observation": "",
            "regle_gestion": "",
            "type_oracle": "string"
        },
        {
            "name": "UCD_NBR_TOT",
            "description": "Nombre d'UCD dispensées totales",
            "type": "number",
            "length": null,
            "dateCreated": "2008",
            "dateDeleted": "2009",
            "nomenclature": "-",
            "dateMissing": [],
            "format": "default",
            "observation": "",
            "regle_gestion": "",
            "type_oracle": "number"
        },
        {
            "name": "ETA_NUM_EPMSI",
            "description": "N° FINESS e-PMSI",
            "type": "string",
            "length": "9",
            "dateCreated": "2008",
            "dateDeleted": "2009",
            "nomenclature": "-",
            "dateMissing": [],
            "format": "default",
            "observation": "",
            "regle_gestion": "",
            "type_oracle": "string"
        },
        {
            "name": "MOY_PRI",
            "description": "Prix moyen",
            "type": "number",
            "length": null,
            "dateCreated": "2008",
            "dateDeleted": "2009",
            "nomenclature": "-",
            "dateMissing": [],
            "format": "default",
            "observation": "",
            "regle_gestion": "",
            "type_oracle": "number"
        },
        {
            "name": "FIC_TYP",
            "description": "Type de fichier",
            "type": "string",
            "length": "3",
            "dateCreated": "2008",
            "dateDeleted": "2009",
            "nomenclature": "-",
            "dateMissing": [],
            "format": "default",
            "observation": "",
            "regle_gestion": "",
            "type_oracle": "string"
        },
        {
            "name": "UCD_NBR_ETH",
            "description": "Nombre d'UCD dispensées au titre des essais thérapeutiques",
            "type": "number",
            "length": null,
            "dateCreated": "2008",
            "dateDeleted": "2009",
            "nomenclature": "-",
            "dateMissing": [],
            "format": "default",
            "observation": "",
            "regle_gestion": "",
            "type_oracle": "number"
        },
        {
            "name": "UCD_UCD_COD",
            "description": "Code UCD",
            "type": "string",
            "length": "13",
            "dateCreated": "2008",
            "dateDeleted": "2009",
            "nomenclature": "-",
            "dateMissing": [],
            "format": "default",
            "observation": "",
            "regle_gestion": "",
            "type_oracle": "string"
        },
        {
            "name": "ACH_PRI_DER",
            "description": "Dernier prix d'achat",
            "type": "number",
            "length": null,
            "dateCreated": "2008",
            "dateDeleted": "2009",
            "nomenclature": "-",
            "dateMissing": [],
            "format": "default",
            "observation": "",
            "regle_gestion": "",
            "type_oracle": "number"
        }
    ],
    "foreignKeys": [
        {
            "fields": "ETA_NUM_EPMSI",
            "reference": {
                "resource": "T_HADaa_nnE",
                "fields": "ETA_NUM"
            }
        }
    ],
    "champ": "Public et Privé",
    "observation": ""
}